[
	"[capitalist noises]",
	"Abraham Gulag",
	"Bert's Accomplice",
	"Bertrude",
	"Big-Dick Haver (Not Really)",
	"Bootlicking Capitalist Bitch",
	"Branded by the State for Wrongthink",
	"Capitalist Traitor",
	"com.gulag.stalin.nickname()",
	"Comrade Puff",
	"Dummy Stupid Wrongthinker",
	"everyone",
	"Failed an IQ Test",
	"Food-Having Capitalist Swine",
	"George Orwell",
	"Gulag Dodger",
	"Hard-Working Communist",
	"here",
	"Horse Faller-Offer",
	"I_EAT_SOAP",
	"Liar, Deceiver, Capitalist",
	"Non-Comrade",
	"Really Bad Communist",
	"Room-Temperature IQ-Haver",
	"Sof's Accomplice",
	"Sofa",
	"Stalin's Bitch",
	"Stalin's Footstool",
	"Stinky Capitalist Poo-Poo Head",
	"Unperson",
	"Very Equal Communist",
	"Wrongthinker"
]
